<svg width="124" height="19" viewBox="0 0 124 19" fill="none" xmlns="http://www.w3.org/2000/svg">
<path d="M17.8984 14.362V15H14.1731V9.86665H17.7958V10.5047H14.9064V12.0813H17.4804V12.7047H14.9064V14.362H17.8984Z" fill="#343666"/>
<path d="M18.9392 9.86665H21.1026C21.6452 9.86665 22.1268 9.97421 22.5472 10.1893C22.9677 10.4044 23.2928 10.7075 23.5226 11.0987C23.7572 11.4849 23.8746 11.9298 23.8746 12.4333C23.8746 12.9369 23.7572 13.3842 23.5226 13.7753C23.2928 14.1616 22.9677 14.4622 22.5472 14.6773C22.1268 14.8925 21.6452 15 21.1026 15H18.9392V9.86665ZM21.0586 14.362C21.4741 14.362 21.8383 14.2813 22.1512 14.12C22.469 13.9587 22.7135 13.7338 22.8846 13.4453C23.0557 13.152 23.1412 12.8147 23.1412 12.4333C23.1412 12.052 23.0557 11.7171 22.8846 11.4287C22.7135 11.1353 22.469 10.908 22.1512 10.7467C21.8383 10.5853 21.4741 10.5047 21.0586 10.5047H19.6725V14.362H21.0586Z" fill="#343666"/>
<path d="M28.4078 12.404H29.1119V14.406C28.8576 14.6162 28.5618 14.7776 28.2245 14.89C27.8872 15.0025 27.5352 15.0587 27.1685 15.0587C26.6503 15.0587 26.1834 14.9462 25.7678 14.7213C25.3523 14.4916 25.0247 14.1787 24.7852 13.7827C24.5505 13.3818 24.4332 12.932 24.4332 12.4333C24.4332 11.9347 24.5505 11.4849 24.7852 11.084C25.0247 10.6831 25.3523 10.3702 25.7678 10.1453C26.1883 9.92043 26.6601 9.80798 27.1832 9.80798C27.5938 9.80798 27.9654 9.87643 28.2978 10.0133C28.6352 10.1453 28.9212 10.3409 29.1559 10.6L28.7012 11.0547C28.2905 10.6587 27.7943 10.4607 27.2125 10.4607C26.8214 10.4607 26.4694 10.5462 26.1565 10.7173C25.8485 10.8835 25.6065 11.1182 25.4305 11.4213C25.2545 11.7195 25.1665 12.0569 25.1665 12.4333C25.1665 12.8049 25.2545 13.1422 25.4305 13.4453C25.6065 13.7436 25.8485 13.9782 26.1565 14.1493C26.4694 14.3204 26.819 14.406 27.2052 14.406C27.6647 14.406 28.0656 14.296 28.4078 14.076V12.404Z" fill="#343666"/>
<path d="M34.0946 14.362V15H30.3692V9.86665H33.9919V10.5047H31.1026V12.0813H33.6766V12.7047H31.1026V14.362H34.0946Z" fill="#343666"/>
<path d="M38.3047 15L36.7647 12.8807L35.2467 15H34.4034L36.3321 12.3673L34.5207 9.86665H35.3567L36.7941 11.8393L38.2167 9.86665H39.0161L37.2047 12.3453L39.1481 15H38.3047Z" fill="#343666"/>
<path d="M41.6884 9.86665H43.8517C44.3944 9.86665 44.876 9.97421 45.2964 10.1893C45.7169 10.4044 46.042 10.7075 46.2718 11.0987C46.5064 11.4849 46.6238 11.9298 46.6238 12.4333C46.6238 12.9369 46.5064 13.3842 46.2718 13.7753C46.042 14.1616 45.7169 14.4622 45.2964 14.6773C44.876 14.8925 44.3944 15 43.8517 15H41.6884V9.86665ZM43.8078 14.362C44.2233 14.362 44.5875 14.2813 44.9004 14.12C45.2182 13.9587 45.4626 13.7338 45.6338 13.4453C45.8049 13.152 45.8904 12.8147 45.8904 12.4333C45.8904 12.052 45.8049 11.7171 45.6338 11.4287C45.4626 11.1353 45.2182 10.908 44.9004 10.7467C44.5875 10.5853 44.2233 10.5047 43.8078 10.5047H42.4217V14.362H43.8078Z" fill="#343666"/>
<path d="M47.6004 9.86665H48.3337V15H47.6004V9.86665Z" fill="#343666"/>
<path d="M53.2806 12.404H53.9846V14.406C53.7303 14.6162 53.4346 14.7776 53.0972 14.89C52.7599 15.0025 52.4079 15.0587 52.0412 15.0587C51.523 15.0587 51.0561 14.9462 50.6406 14.7213C50.225 14.4916 49.8974 14.1787 49.6579 13.7827C49.4232 13.3818 49.3059 12.932 49.3059 12.4333C49.3059 11.9347 49.4232 11.4849 49.6579 11.084C49.8974 10.6831 50.225 10.3702 50.6406 10.1453C51.061 9.92043 51.5328 9.80798 52.0559 9.80798C52.4666 9.80798 52.8381 9.87643 53.1706 10.0133C53.5079 10.1453 53.7939 10.3409 54.0286 10.6L53.5739 11.0547C53.1632 10.6587 52.667 10.4607 52.0852 10.4607C51.6941 10.4607 51.3421 10.5462 51.0292 10.7173C50.7212 10.8835 50.4792 11.1182 50.3032 11.4213C50.1272 11.7195 50.0392 12.0569 50.0392 12.4333C50.0392 12.8049 50.1272 13.1422 50.3032 13.4453C50.4792 13.7436 50.7212 13.9782 51.0292 14.1493C51.3421 14.3204 51.6917 14.406 52.0779 14.406C52.5375 14.406 52.9383 14.296 53.2806 14.076V12.404Z" fill="#343666"/>
<path d="M55.242 9.86665H55.9753V15H55.242V9.86665Z" fill="#343666"/>
<path d="M58.3848 10.5047H56.6248V9.86665H60.8708V10.5047H59.1108V15H58.3848V10.5047Z" fill="#343666"/>
<path d="M64.5357 13.7167H61.8077L61.2431 15H60.4877L62.8124 9.86665H63.5384L65.8704 15H65.1004L64.5357 13.7167ZM64.2791 13.13L63.1717 10.6147L62.0644 13.13H64.2791Z" fill="#343666"/>
<path d="M66.4895 9.86665H67.2228V14.362H70.0022V15H66.4895V9.86665Z" fill="#343666"/>
<path d="M72.5198 9.86665H73.2531V15H72.5198V9.86665Z" fill="#343666"/>
<path d="M79.058 9.86665V15H78.4566L75.3766 11.172V15H74.6433V9.86665H75.2446L78.3247 13.6947V9.86665H79.058Z" fill="#343666"/>
<path d="M84.8625 9.86665V15H84.2612L81.1812 11.172V15H80.4478V9.86665H81.0492L84.1292 13.6947V9.86665H84.8625Z" fill="#343666"/>
<path d="M88.5697 15.0587C88.0515 15.0587 87.5846 14.9462 87.169 14.7213C86.7535 14.4916 86.4259 14.1762 86.1864 13.7753C85.9517 13.3744 85.8344 12.9271 85.8344 12.4333C85.8344 11.9395 85.9517 11.4922 86.1864 11.0913C86.4259 10.6904 86.7535 10.3775 87.169 10.1527C87.5846 9.92287 88.0515 9.80798 88.5697 9.80798C89.083 9.80798 89.5475 9.92287 89.9631 10.1527C90.3786 10.3775 90.7037 10.6904 90.9384 11.0913C91.1731 11.4873 91.2904 11.9347 91.2904 12.4333C91.2904 12.932 91.1731 13.3818 90.9384 13.7827C90.7037 14.1787 90.3786 14.4916 89.9631 14.7213C89.5475 14.9462 89.083 15.0587 88.5697 15.0587ZM88.5697 14.406C88.9462 14.406 89.2835 14.3204 89.5817 14.1493C89.8848 13.9782 90.1219 13.7436 90.2931 13.4453C90.4691 13.1422 90.5571 12.8049 90.5571 12.4333C90.5571 12.0618 90.4691 11.7269 90.2931 11.4287C90.1219 11.1255 89.8848 10.8884 89.5817 10.7173C89.2835 10.5462 88.9462 10.4607 88.5697 10.4607C88.1933 10.4607 87.851 10.5462 87.543 10.7173C87.2399 10.8884 87.0004 11.1255 86.8244 11.4287C86.6533 11.7269 86.5677 12.0618 86.5677 12.4333C86.5677 12.8049 86.6533 13.1422 86.8244 13.4453C87.0004 13.7436 87.2399 13.9782 87.543 14.1493C87.851 14.3204 88.1933 14.406 88.5697 14.406Z" fill="#343666"/>
<path d="M96.5586 9.86665L94.3072 15H93.5812L91.3225 9.86665H92.1145L93.9625 14.0833L95.8252 9.86665H96.5586Z" fill="#343666"/>
<path d="M100.172 13.7167H97.4445L96.8798 15H96.1245L98.4491 9.86665H99.1751L101.507 15H100.737L100.172 13.7167ZM99.9158 13.13L98.8085 10.6147L97.7011 13.13H99.9158Z" fill="#343666"/>
<path d="M102.888 10.5047H101.128V9.86665H105.374V10.5047H103.614V15H102.888V10.5047Z" fill="#343666"/>
<path d="M106.026 9.86665H106.759V15H106.026V9.86665Z" fill="#343666"/>
<path d="M110.467 15.0587C109.948 15.0587 109.482 14.9462 109.066 14.7213C108.65 14.4916 108.323 14.1762 108.083 13.7753C107.849 13.3744 107.731 12.9271 107.731 12.4333C107.731 11.9395 107.849 11.4922 108.083 11.0913C108.323 10.6904 108.65 10.3775 109.066 10.1527C109.482 9.92287 109.948 9.80798 110.467 9.80798C110.98 9.80798 111.444 9.92287 111.86 10.1527C112.276 10.3775 112.601 10.6904 112.835 11.0913C113.07 11.4873 113.187 11.9347 113.187 12.4333C113.187 12.932 113.07 13.3818 112.835 13.7827C112.601 14.1787 112.276 14.4916 111.86 14.7213C111.444 14.9462 110.98 15.0587 110.467 15.0587ZM110.467 14.406C110.843 14.406 111.18 14.3204 111.479 14.1493C111.782 13.9782 112.019 13.7436 112.19 13.4453C112.366 13.1422 112.454 12.8049 112.454 12.4333C112.454 12.0618 112.366 11.7269 112.19 11.4287C112.019 11.1255 111.782 10.8884 111.479 10.7173C111.18 10.5462 110.843 10.4607 110.467 10.4607C110.09 10.4607 109.748 10.5462 109.44 10.7173C109.137 10.8884 108.897 11.1255 108.721 11.4287C108.55 11.7269 108.465 12.0618 108.465 12.4333C108.465 12.8049 108.55 13.1422 108.721 13.4453C108.897 13.7436 109.137 13.9782 109.44 14.1493C109.748 14.3204 110.09 14.406 110.467 14.406Z" fill="#343666"/>
<path d="M118.576 9.86665V15H117.975L114.895 11.172V15H114.162V9.86665H114.763L117.843 13.6947V9.86665H118.576Z" fill="#343666"/>
<path d="M121.462 15.0587C121.076 15.0587 120.702 15 120.34 14.8827C119.983 14.7605 119.702 14.604 119.497 14.4133L119.768 13.8413C119.964 14.0173 120.213 14.1616 120.516 14.274C120.824 14.3816 121.139 14.4353 121.462 14.4353C121.887 14.4353 122.205 14.3644 122.415 14.2227C122.626 14.076 122.731 13.8829 122.731 13.6433C122.731 13.4673 122.672 13.3256 122.555 13.218C122.442 13.1056 122.301 13.02 122.129 12.9613C121.963 12.9027 121.726 12.8367 121.418 12.7633C121.032 12.6704 120.719 12.5776 120.479 12.4847C120.245 12.3918 120.042 12.25 119.871 12.0593C119.705 11.8638 119.621 11.6022 119.621 11.2747C119.621 11.0009 119.692 10.754 119.834 10.534C119.981 10.314 120.201 10.138 120.494 10.006C120.787 9.87398 121.152 9.80798 121.587 9.80798C121.89 9.80798 122.188 9.84709 122.481 9.92532C122.775 10.0035 123.027 10.116 123.237 10.2627L122.995 10.8493C122.78 10.7124 122.55 10.6098 122.305 10.5413C122.061 10.468 121.821 10.4313 121.587 10.4313C121.171 10.4313 120.858 10.5071 120.648 10.6587C120.443 10.8102 120.34 11.0058 120.34 11.2453C120.34 11.4213 120.399 11.5655 120.516 11.678C120.633 11.7855 120.778 11.8711 120.949 11.9347C121.125 11.9933 121.362 12.0569 121.66 12.1253C122.046 12.2182 122.357 12.3111 122.591 12.404C122.826 12.4969 123.027 12.6387 123.193 12.8293C123.364 13.02 123.449 13.2767 123.449 13.5993C123.449 13.8682 123.376 14.1151 123.229 14.34C123.083 14.56 122.86 14.736 122.562 14.868C122.264 14.9951 121.897 15.0587 121.462 15.0587Z" fill="#343666"/>
<path fill-rule="evenodd" clip-rule="evenodd" d="M6.1112 11.7008L5.26264 12.9501C5.12849 13.1476 4.90449 13.2649 4.66575 13.2628L3.09517 13.249L3.99352 11.9968C4.12779 11.8096 4.34412 11.6987 4.57448 11.699L6.1112 11.7008ZM6.665 10.8855L4.57542 10.883C4.4598 10.8829 4.34582 10.8958 4.23537 10.9209L3.38514 9.31283L6.3836 9.31629C6.95628 9.31696 7.29516 9.9577 6.97339 10.4314L6.665 10.8855ZM2.67152 9.70883L0.952439 12.1051C0.615209 12.5752 0.947785 13.2302 1.52629 13.2352L2.09724 13.2403L3.33051 11.5212C3.38626 11.4434 3.44862 11.3719 3.51651 11.307L2.67152 9.70883ZM2.25826 8.92722C2.19298 8.99039 2.13292 9.05978 2.07902 9.13491L0.289433 11.6295C-0.432638 12.636 0.278348 14.0381 1.51621 14.0511C0.834997 15.0556 1.54542 16.4267 2.77061 16.4374L5.91007 16.465C6.03013 16.4661 6.14846 16.453 6.26297 16.427L7.05801 17.9161C7.16414 18.1148 7.4113 18.1899 7.61007 18.0838C7.80884 17.9777 7.88394 17.7305 7.77781 17.5317L6.98152 16.0403C7.05837 15.9668 7.12808 15.8847 7.18912 15.7948L8.89987 13.2762C9.58666 12.265 8.86892 10.8989 7.65058 10.8867C8.33634 9.87185 7.6104 8.50174 6.38455 8.50032L3.32392 8.49679C3.20513 8.49665 3.08808 8.51031 2.97479 8.53672L2.18912 7.05074C2.0838 6.85155 1.83694 6.77545 1.63774 6.88077C1.43855 6.98609 1.36245 7.23295 1.46777 7.43214L2.25826 8.92722ZM8.22488 12.8177L6.56536 15.2609L5.71501 13.6683C5.79781 13.5911 5.87264 13.5042 5.93762 13.4085L7.09683 11.7019L7.6351 11.7025C8.20777 11.7032 8.54666 12.344 8.22488 12.8177ZM5.8473 15.6485L4.99126 14.0452C4.88307 14.0683 4.77159 14.0798 4.65857 14.0788L2.51345 14.0599L2.20393 14.4914C1.8667 14.9614 2.19928 15.6164 2.77778 15.6215L5.8473 15.6485Z" fill="#343666"/>
<path d="M44.9962 0.799974C45.5402 0.799974 45.9682 0.929974 46.2802 1.18997C46.5922 1.44997 46.7482 1.80797 46.7482 2.26397C46.7482 2.71997 46.5922 3.07797 46.2802 3.33797C45.9682 3.59797 45.5402 3.72797 44.9962 3.72797H43.9582V4.99997H43.3582V0.799974H44.9962ZM44.9782 3.20597C45.3582 3.20597 45.6482 3.12597 45.8482 2.96597C46.0482 2.80197 46.1482 2.56797 46.1482 2.26397C46.1482 1.95997 46.0482 1.72797 45.8482 1.56797C45.6482 1.40397 45.3582 1.32197 44.9782 1.32197H43.9582V3.20597H44.9782Z" fill="black" fill-opacity="0.17"/>
<path d="M48.7759 5.03597C48.4599 5.03597 48.1759 4.96597 47.9239 4.82597C47.6719 4.68597 47.4739 4.49397 47.3299 4.24997C47.1899 4.00197 47.1199 3.72197 47.1199 3.40997C47.1199 3.09797 47.1899 2.81997 47.3299 2.57597C47.4739 2.32797 47.6719 2.13597 47.9239 1.99997C48.1759 1.85997 48.4599 1.78997 48.7759 1.78997C49.0919 1.78997 49.3739 1.85997 49.6219 1.99997C49.8739 2.13597 50.0699 2.32797 50.2099 2.57597C50.3539 2.81997 50.4259 3.09797 50.4259 3.40997C50.4259 3.72197 50.3539 4.00197 50.2099 4.24997C50.0699 4.49397 49.8739 4.68597 49.6219 4.82597C49.3739 4.96597 49.0919 5.03597 48.7759 5.03597ZM48.7759 4.53197C48.9799 4.53197 49.1619 4.48597 49.3219 4.39397C49.4859 4.29797 49.6139 4.16597 49.7059 3.99797C49.7979 3.82597 49.8439 3.62997 49.8439 3.40997C49.8439 3.18997 49.7979 2.99597 49.7059 2.82797C49.6139 2.65597 49.4859 2.52397 49.3219 2.43197C49.1619 2.33997 48.9799 2.29397 48.7759 2.29397C48.5719 2.29397 48.3879 2.33997 48.2239 2.43197C48.0639 2.52397 47.9359 2.65597 47.8399 2.82797C47.7479 2.99597 47.7019 3.18997 47.7019 3.40997C47.7019 3.62997 47.7479 3.82597 47.8399 3.99797C47.9359 4.16597 48.0639 4.29797 48.2239 4.39397C48.3879 4.48597 48.5719 4.53197 48.7759 4.53197Z" fill="black" fill-opacity="0.17"/>
<path d="M55.8266 1.81997L54.6386 4.99997H54.0866L53.1686 2.58797L52.2386 4.99997H51.6866L50.5046 1.81997H51.0506L51.9746 4.35197L52.9346 1.81997H53.4206L54.3626 4.36397L55.3106 1.81997H55.8266Z" fill="black" fill-opacity="0.17"/>
<path d="M59.0772 3.42797C59.0772 3.47197 59.0732 3.52997 59.0652 3.60197H56.4852C56.5212 3.88197 56.6432 4.10797 56.8512 4.27997C57.0632 4.44797 57.3252 4.53197 57.6372 4.53197C58.0172 4.53197 58.3232 4.40397 58.5552 4.14797L58.8732 4.51997C58.7292 4.68797 58.5492 4.81597 58.3332 4.90397C58.1212 4.99197 57.8832 5.03597 57.6192 5.03597C57.2832 5.03597 56.9852 4.96797 56.7252 4.83197C56.4652 4.69197 56.2632 4.49797 56.1192 4.24997C55.9792 4.00197 55.9092 3.72197 55.9092 3.40997C55.9092 3.10197 55.9772 2.82397 56.1132 2.57597C56.2532 2.32797 56.4432 2.13597 56.6832 1.99997C56.9272 1.85997 57.2012 1.78997 57.5052 1.78997C57.8092 1.78997 58.0792 1.85997 58.3152 1.99997C58.5552 2.13597 58.7412 2.32797 58.8732 2.57597C59.0092 2.82397 59.0772 3.10797 59.0772 3.42797ZM57.5052 2.27597C57.2292 2.27597 56.9972 2.35997 56.8092 2.52797C56.6252 2.69597 56.5172 2.91597 56.4852 3.18797H58.5252C58.4932 2.91997 58.3832 2.70197 58.1952 2.53397C58.0112 2.36197 57.7812 2.27597 57.5052 2.27597Z" fill="black" fill-opacity="0.17"/>
<path d="M60.309 2.35397C60.409 2.16997 60.557 2.02997 60.753 1.93397C60.949 1.83797 61.187 1.78997 61.467 1.78997V2.34797C61.435 2.34397 61.391 2.34197 61.335 2.34197C61.023 2.34197 60.777 2.43597 60.597 2.62397C60.421 2.80797 60.333 3.07197 60.333 3.41597V4.99997H59.757V1.81997H60.309V2.35397Z" fill="black" fill-opacity="0.17"/>
<path d="M64.9017 3.42797C64.9017 3.47197 64.8977 3.52997 64.8897 3.60197H62.3097C62.3457 3.88197 62.4677 4.10797 62.6757 4.27997C62.8877 4.44797 63.1497 4.53197 63.4617 4.53197C63.8417 4.53197 64.1477 4.40397 64.3797 4.14797L64.6977 4.51997C64.5537 4.68797 64.3737 4.81597 64.1577 4.90397C63.9457 4.99197 63.7077 5.03597 63.4437 5.03597C63.1077 5.03597 62.8097 4.96797 62.5497 4.83197C62.2897 4.69197 62.0877 4.49797 61.9437 4.24997C61.8037 4.00197 61.7337 3.72197 61.7337 3.40997C61.7337 3.10197 61.8017 2.82397 61.9377 2.57597C62.0777 2.32797 62.2677 2.13597 62.5077 1.99997C62.7517 1.85997 63.0257 1.78997 63.3297 1.78997C63.6337 1.78997 63.9037 1.85997 64.1397 1.99997C64.3797 2.13597 64.5657 2.32797 64.6977 2.57597C64.8337 2.82397 64.9017 3.10797 64.9017 3.42797ZM63.3297 2.27597C63.0537 2.27597 62.8217 2.35997 62.6337 2.52797C62.4497 2.69597 62.3417 2.91597 62.3097 3.18797H64.3497C64.3177 2.91997 64.2077 2.70197 64.0197 2.53397C63.8357 2.36197 63.6057 2.27597 63.3297 2.27597Z" fill="black" fill-opacity="0.17"/>
<path d="M68.5815 0.547974V4.99997H68.0295V4.49597C67.9015 4.67197 67.7395 4.80597 67.5435 4.89797C67.3475 4.98997 67.1315 5.03597 66.8955 5.03597C66.5875 5.03597 66.3115 4.96797 66.0675 4.83197C65.8235 4.69597 65.6315 4.50597 65.4915 4.26197C65.3555 4.01397 65.2875 3.72997 65.2875 3.40997C65.2875 3.08997 65.3555 2.80797 65.4915 2.56397C65.6315 2.31997 65.8235 2.12997 66.0675 1.99397C66.3115 1.85797 66.5875 1.78997 66.8955 1.78997C67.1235 1.78997 67.3335 1.83397 67.5255 1.92197C67.7175 2.00597 67.8775 2.13197 68.0055 2.29997V0.547974H68.5815ZM66.9435 4.53197C67.1435 4.53197 67.3255 4.48597 67.4895 4.39397C67.6535 4.29797 67.7815 4.16597 67.8735 3.99797C67.9655 3.82597 68.0115 3.62997 68.0115 3.40997C68.0115 3.18997 67.9655 2.99597 67.8735 2.82797C67.7815 2.65597 67.6535 2.52397 67.4895 2.43197C67.3255 2.33997 67.1435 2.29397 66.9435 2.29397C66.7395 2.29397 66.5555 2.33997 66.3915 2.43197C66.2315 2.52397 66.1035 2.65597 66.0075 2.82797C65.9155 2.99597 65.8695 3.18997 65.8695 3.40997C65.8695 3.62997 65.9155 3.82597 66.0075 3.99797C66.1035 4.16597 66.2315 4.29797 66.3915 4.39397C66.5555 4.48597 66.7395 4.53197 66.9435 4.53197Z" fill="black" fill-opacity="0.17"/>
<path d="M73.9527 2.82197C74.1967 2.88997 74.3887 3.01397 74.5287 3.19397C74.6687 3.36997 74.7387 3.59397 74.7387 3.86597C74.7387 4.22997 74.6007 4.50997 74.3247 4.70597C74.0527 4.90197 73.6547 4.99997 73.1307 4.99997H71.1267V0.799974H73.0107C73.4907 0.799974 73.8607 0.895974 74.1207 1.08797C74.3847 1.27997 74.5167 1.54597 74.5167 1.88597C74.5167 2.10597 74.4647 2.29597 74.3607 2.45597C74.2607 2.61597 74.1247 2.73797 73.9527 2.82197ZM71.7267 1.28597V2.62997H72.9567C73.2647 2.62997 73.5007 2.57397 73.6647 2.46197C73.8327 2.34597 73.9167 2.17797 73.9167 1.95797C73.9167 1.73797 73.8327 1.57197 73.6647 1.45997C73.5007 1.34397 73.2647 1.28597 72.9567 1.28597H71.7267ZM73.1067 4.51397C73.4467 4.51397 73.7027 4.45797 73.8747 4.34597C74.0467 4.23397 74.1327 4.05797 74.1327 3.81797C74.1327 3.34997 73.7907 3.11597 73.1067 3.11597H71.7267V4.51397H73.1067Z" fill="black" fill-opacity="0.17"/>
<path d="M78.2777 1.81997L76.7357 5.31797C76.5997 5.64197 76.4397 5.86997 76.2557 6.00197C76.0757 6.13397 75.8577 6.19997 75.6017 6.19997C75.4457 6.19997 75.2937 6.17397 75.1457 6.12197C75.0017 6.07397 74.8817 6.00197 74.7857 5.90597L75.0317 5.47397C75.1957 5.62997 75.3857 5.70797 75.6017 5.70797C75.7417 5.70797 75.8577 5.66997 75.9497 5.59397C76.0457 5.52197 76.1317 5.39597 76.2077 5.21597L76.3097 4.99397L74.9057 1.81997H75.5057L76.6157 4.36397L77.7137 1.81997H78.2777Z" fill="black" fill-opacity="0.17"/>
<path d="M80.3246 2.61197C80.2126 2.61197 80.1166 2.57397 80.0366 2.49797C79.9566 2.41797 79.9166 2.31797 79.9166 2.19797C79.9166 2.08197 79.9566 1.98597 80.0366 1.90997C80.1166 1.82997 80.2126 1.78997 80.3246 1.78997C80.4366 1.78997 80.5306 1.82797 80.6066 1.90397C80.6826 1.97997 80.7206 2.07797 80.7206 2.19797C80.7206 2.31797 80.6806 2.41797 80.6006 2.49797C80.5246 2.57397 80.4326 2.61197 80.3246 2.61197ZM80.3246 5.03597C80.2126 5.03597 80.1166 4.99797 80.0366 4.92197C79.9566 4.84197 79.9166 4.74197 79.9166 4.62197C79.9166 4.50597 79.9566 4.40997 80.0366 4.33397C80.1166 4.25397 80.2126 4.21397 80.3246 4.21397C80.4366 4.21397 80.5306 4.25197 80.6066 4.32797C80.6826 4.40397 80.7206 4.50197 80.7206 4.62197C80.7206 4.74197 80.6806 4.84197 80.6006 4.92197C80.5246 4.99797 80.4326 5.03597 80.3246 5.03597Z" fill="black" fill-opacity="0.17"/>
</svg>
